-32 -40 904
-8 -24 -24 -32 -16 848
-24 -16 -8 920
-8 -16 -32 -32 872
8 -8 -16 -24 -24 872
-32 -32 -8 -32 -8 840
-8 56 -8 -16 872
-32 -16 928
-8 -40 -8 -32 -8 856
-8 -24 944
-24 -40 -32 -8 856
-40 -32 -32 -40 -16 -16 -16 744
8 -32 -24 -8 888
-8 -40 -8 -24 880
-40 -40 -8 -8 -32 -16 800
-32 -16 -40 8 -16 -32 -24 768
-24 960
8 -8 -8 72 -32 824
-16 -16 -24 -16 -8 -40 -8 808
-32 952
-16 -16 944
-32 -24 8 -8 -40 840
-8 -24 -40 -8 -40 832
16 -32 -16 -24 -32 -40 -24 -32 -32 672
24 -16 32 -24 -16 -40 -32 752
-32 952
8 -16 -24 -16 -40 848
