8 -40 -32 -16 864
-64 40 -48 -56 752
56 -24 -40 -48 792
-8 -32 -8 112 -56 -24 704
992
48 -16 48 -56 -16 768
56 -56 864
8 -8 -8 -8 16 -72 16 -8 -40 -48 680
992
88 -8 880
-48 64 -32 824
8 -48 -24 888
-40 -80 -8 -24 32 -80 680
-24 960
376 -8 -16 -24 -32 496
40 -16 -16 -24 -16 840
992
80 -16 56 -80 536 -8 168
-16 -8 -8 -16 912
-80 904
168 -8 16 -24 -8 -16 704
72 -64 -72 760
