56 -24 -72 -104 704
232 -16 -104 -32 -40 -104 -24 384
128 -56 -64 -80 -32 -40 -88 -16 424
184 -8 -16 -88 -88 -56 -88 -16 384
-40 -32 904
312 -80 584
64 -64 -24 816
-96 -40 -88 -64 -24 -8 -56 -80 472
280 -56 -80 -72 -88 -80 -48 232
-48 936
64 -96 816
24 -104 -80 -56 -64 624
-32 952
200 -72 -96 -88 -88 -24 376
184 -104 688
48 -104 824
128 -32 816
-40 -32 -16 880
24 -96 856
144 -96 -88 -56 -48 -96 -16 -64 -56 256
232 -24 -24 -32 648
160 -16 -64 -16 704
176 -32 -32 728
160 -96 720
-48 -24 -104 -48 -64 664
