-16 -16 -104 -8 -88 -56 -72 -32 536
-96 -32 -64 -104 664
-64 -24 48 -120 -104 -104 -56 -96 -64 240
-40 -16 -40 -120 -120 -104 -8 -104 -64 -48 248
-104 -48 -48 32 -32 -8 -112 552
-72 -96 -104 -40 16 -48 -120 440
-120 -80 -48 -8 72 -56 -96 456
-120 -24 -56 -40 -112 -48 -64 -120 -112 -56 160
8 -48 -24 -24 -16 -64 -56 696
-80 -80 -24 -96 -112 -64 -56 -104 -80 -72 144
-88 24 -80 56 -120 -72 -48 -112 328
-24 -64 -64 -80 -80 -80 -32 -16 488
-40 16 -32 -88 -96 -56 -40 568
-56 64 -16 -48 -120 -72 -120 -48 -56 320
-88 -16 48 -24 -96 680
-48 -56 -96 -56 -72 -88 -88 -96 328
-80 -88 -64 -40 688
-120 -112 -48 -8 -8 -48 600
-80 -88 -32 -32 -96 -56 32 -96 -8 400
88 -72 -88 -8 -88 -120 -48 424
-24 168 -80 -88 -48 -24 -8 496
-96 -16 -88 -8 -32 64 -120 512
-56 64 -40 -56 -96 -120 -120 384
-96 -88 -96 -120 -120 -56 -88 -80 -8 -8 152
-120 -8 -48 -120 -72 -40 72 -64 -56 320
